{"_id":{"$oid":"60f16fb1633017766203f23c"},"userid":{"$oid":"60a20ad913da42024685c343"},"productid":{"$oid":"60effbae633017766203ab0b"},"quantity":2,"discountapplied":true,"price":600,"updatedAt":{"$date":"2021-07-17T04:34:32.316Z"}}
{"_id":{"$oid":"60f16fb4633017766203f240"},"userid":{"$oid":"60a20ad913da42024685c343"},"productid":{"$oid":"60effbae633017766203ab0b"},"quantity":2,"discountapplied":true,"price":600,"updatedAt":{"$date":"2021-07-17T04:34:32.316Z"}}
{"_id":{"$oid":"60f171db633017766203f323"},"userid":{"$oid":"60a20ad913da42024685c343"},"productid":{"$oid":"60effbae633017766203ab0b"},"quantity":2,"discountapplied":true,"price":600,"updatedAt":{"$date":"2021-07-17T04:34:32.316Z"}}
{"_id":{"$oid":"60f25e8563301776620406a7"},"userid":{"$oid":"60a20ad913da42024685c343"},"productid":{"$oid":"60acd21a5fe89a1810a7c11b"},"quantity":2,"discountapplied":true,"price":600,"updatedAt":{"$date":"2021-07-17T04:34:32.316Z"}}
{"_id":{"$oid":"60f25e8b63301776620406b0"},"userid":{"$oid":"60a20ad913da42024685c343"},"productid":{"$oid":"60acd21a5fe89a1810a7c11b"},"quantity":2,"discountapplied":true,"price":600,"updatedAt":{"$date":"2021-07-17T04:34:32.316Z"}}
